…
* Select relevant columns and join to DESeq2 results table
```{r eval=FALSE}
annot <- annotations %>%
  select(GeneID = gene_id, Symbol = symbol, Description = description)

annot.interaction.11 <- results.interaction.11 %>%
  as.data.frame() %>% 
  rownames_to_column("GeneID") %>% 
  left_join(annot, by="GeneID")
head(annot.interaction.11)
```

```
## # A tibble: 20,091 × 9
##    GeneID           baseMean log2FoldChange  lfcSE   stat  pvalue    padj Symbol
##    <chr>               <dbl>          <dbl>  <dbl>  <dbl>   <dbl>   <dbl> <chr> 
##  1 ENSMUSG00000000…  1103.           -0.164 0.141  -1.16  2.45e-1 0.688   Gnai3 
##  2 ENSMUSG00000000…    58.6           0.427 0.393   1.09  2.77e-1 0.719   Cdc45 
##  3 ENSMUSG00000000…    49.2          -0.238 0.627  -0.380 7.04e-1 0.929   Scml2 
##  4 ENSMUSG00000000…     7.99          0.819 0.974   0.841 4.00e-1 0.803   Apoh  
##  5 ENSMUSG00000000…  1981.            0.128 0.0998  1.29  1.99e-1 0.640   Narf  
## # ℹ 20,086 more rows
## # ℹ 1 more variable: Description <chr>
```
…
